{
    "/css/site.css": "/css/site.css?id=d61b362f383cf9b8cb11",
    "/js/groups-common.js": "/js/groups-common.js?id=82adb07fd81946002c97",
    "/js/groups-index.js": "/js/groups-index.js?id=355cf2fd3e985aeeeb5d",
    "/js/reports-common.js": "/js/reports-common.js?id=d5918acefc24370efc5d",
    "/js/reports-index.js": "/js/reports-index.js?id=23ddcdbd6be029cfd2ff",
    "/js/reports-edit.js": "/js/reports-edit.js?id=1f93315df27929edd1cb",
    "/js/tenants-common.js": "/js/tenants-common.js?id=b16e920f42635ed14f80",
    "/js/tenants-index.js": "/js/tenants-index.js?id=5a88901fa0787372a2f3",
    "/js/users-common.js": "/js/users-common.js?id=dad0a15ac1e3dfd249d8",
    "/js/users-index.js": "/js/users-index.js?id=2aba166c62c521c3f5a7"
}
